Introduction to R for Data Science Part II
…
Reading Delimited Data

Lets read in the ‘neuralgia.csv’ file

neuralgiaData2

## # A tibble: 60 x 5
##   Treatment Sex     Age Duration Pain 
##   <chr>     <chr> <dbl>    <dbl> <chr>
## 1 P         F        68        1 No   
## 2 B         M        74       16 No   
## 3 P         F        67       30 No   
## 4 P         M        66       26 Yes  
## 5 B         F        67       28 No   
## # ... with 55 more rows
…
## [1] "spec_tbl_df" "tbl_df"      "tbl"         "data.frame"

tibbles

Behavior slightly different than a standard data frame. No simplification!

neuralgiaData[,1]

##  [1] P B P P B B A B B A A A B A P A P A P B B A A A B P B B P P A A B B B A P B
## [39] B P P P A B A P P A B P P P B A P A P A B A
## Levels: A B P

neuralgiaData2[,1]

## # A tibble: 60 x 1
##   Treatment
##   <chr>    
## 1 P        
## 2 B        
## 3 P        
## 4 P        
## 5 B        
## # ... with 55 more rows
…
Reading Delimited Data

Reading clean delimited data pretty easy!

Lets read in the ‘crabs.txt’ file (tab delimited)

Reading Delimited Data

Reading clean delimited data pretty easy!

Lets read in the ‘crabs.txt’ file (tab delimited)

read_tsv("https://www4.stat.ncsu.edu/~online/datasets/crabs.txt")

## # A tibble: 173 x 6
##   color spine width satell weight     y
##   <dbl> <dbl> <dbl>  <dbl>  <dbl> <dbl>
## 1     3     3  28.3      8   3050     1
## 2     4     3  22.5      0   1550     0
## 3     2     1  26        9   2300     1
## 4     4     3  24.8      0   2100     0
## 5     4     3  26        4   2600     1
## # ... with 168 more rows
…
Reading Delimited Data

Reading clean delimited data pretty easy!

Lets read in the ‘umps2012.txt’ file (‘>’ delimited)

Notice no column names provided

Year Month Day Home Away HPUmpire

read_delim("https://www4.stat.ncsu.edu/~online/datasets/umps2012.txt", delim = ">",
           col_names = c("Year", "Month", "Day", "Home", "Away", "HPUmpire"))

## # A tibble: 2,359 x 6
##    Year Month   Day Home  Away  HPUmpire        
##   <dbl> <dbl> <dbl> <chr> <chr> <chr>           
## 1  2012     4    12 MIN   LAA   D.J. Reyburn    
## 2  2012     4    12 SD    ARI   Marty Foster    
## 3  2012     4    12 WSH   CIN   Mike Everitt    
## 4  2012     4    12 PHI   MIA   Jeff Nelson     
## 5  2012     4    12 CHC   MIL   Fieldin Culbreth
## # ... with 2,354 more rows
…
Reads both xls and xlsx files

Detects format from extension given

Cant pull from web though!

Excel Data

#install package if necessary
library(readxl)
#reads first sheet by default
edData <- read_excel("datasets/censusEd.xlsx")
edData

## # A tibble: 3,198 x 42
##   Area_name STCOU EDU010187F EDU010187D EDU010187N1 EDU010187N2 EDU010188F
##   <chr>     <chr>      <dbl>      <dbl> <chr>       <chr>            <dbl>
## 1 UNITED S~ 00000          0   40024299 0000        0000                 0
## 2 ALABAMA   01000          0     733735 0000        0000                 0
## 3 Autauga,~ 01001          0       6829 0000        0000                 0
## 4 Baldwin,~ 01003          0      16417 0000        0000                 0
## 5 Barbour,~ 01005          0       5071 0000        0000                 0
## # ... with 3,193 more rows, and 35 more variables: EDU010188D <dbl>,
## #   EDU010188N1 <chr>, EDU010188N2 <chr>, EDU010189F <dbl>, EDU010189D <dbl>,
## #   EDU010189N1 <chr>, EDU010189N2 <chr>, EDU010190F <dbl>, EDU010190D <dbl>,
## #   EDU010190N1 <chr>, EDU010190N2 <chr>, EDU010191F <dbl>, EDU010191D <dbl>,
## #   EDU010191N1 <chr>, EDU010191N2 <chr>, EDU010192F <dbl>, EDU010192D <dbl>,
## #   EDU010192N1 <chr>, EDU010192N2 <chr>, EDU010193F <dbl>, EDU010193D <dbl>,
## #   EDU010193N1 <chr>, EDU010193N2 <chr>, EDU010194F <dbl>, EDU010194D <dbl>,
## #   EDU010194N1 <chr>, EDU010194N2 <chr>, EDU010195F <dbl>, EDU010195D <dbl>,
## #   EDU010195N1 <chr>, EDU010195N2 <chr>, EDU010196F <dbl>, EDU010196D <dbl>,
…
read_excel("datasets/censusEd.xlsx", sheet = "EDU01D")

Excel Data

Use read_excel() from readxl package!

Specify cells with contiguous range with range =

edData <- read_excel("datasets/censusEd.xlsx", sheet = "EDU01A", 
                   range = cell_cols("A:D"))
edData

## # A tibble: 3,198 x 4
##   Area_name     STCOU EDU010187F EDU010187D
##   <chr>         <chr>      <dbl>      <dbl>
## 1 UNITED STATES 00000          0   40024299
## 2 ALABAMA       01000          0     733735
## 3 Autauga, AL   01001          0       6829
## 4 Baldwin, AL   01003          0      16417
## 5 Barbour, AL   01005          0       5071
## # ... with 3,193 more rows
…
SAS data has extension ‘.sas7bdat’

Read in smoke2003.sas7bdat

Use read_sas() from haven package

Not many options!

#install if necessary
library(haven)
smokeData <- read_sas("https://www4.stat.ncsu.edu/~online/datasets/smoke2003.sas7bdat")
smokeData

## # A tibble: 443 x 54
##    SEQN SDDSRVYR RIDSTATR RIDEXMON RIAGENDR RIDAGEYR RIDAGEMN RIDAGEEX RIDRETH1
##   <dbl>    <dbl>    <dbl>    <dbl>    <dbl>    <dbl>    <dbl>    <dbl>    <dbl>
## 1 21010        3        2        2        2       52      633      634        3
## 2 21012        3        2        2        1       63      765      766        4
## 3 21048        3        2        1        2       42      504      504        1
## 4 21084        3        2        1        2       57      692      693        3
## 5 21093        3        2        1        2       64      778      778        2
## # ... with 438 more rows, and 45 more variables: RIDRETH2 <dbl>,
## #   DMQMILIT <dbl>, DMDBORN <dbl>, DMDCITZN <dbl>, DMDYRSUS <dbl>,
## #   DMDEDUC3 <dbl>, DMDEDUC2 <dbl>, DMDEDUC <dbl>, DMDSCHOL <dbl>,
## #   DMDMARTL <dbl>, DMDHHSIZ <dbl>, INDHHINC <dbl>, INDFMINC <dbl>,
## #   INDFMPIR <dbl>, RIDEXPRG <dbl>, DMDHRGND <dbl>, DMDHRAGE <dbl>,
## #   DMDHRBRN <dbl>, DMDHREDU <dbl>, DMDHRMAR <dbl>, DMDHSEDU <dbl>,
## #   SIALANG <dbl>, SIAPROXY <dbl>, SIAINTRP <dbl>, FIALANG <dbl>,
## #   FIAPROXY <dbl>, FIAINTRP <dbl>, MIALANG <dbl>, MIAPROXY <dbl>,
## #   MIAINTRP <dbl>, AIALANG <dbl>, WTINT2YR <dbl>, WTMEC2YR <dbl>,
…
