Introduction to Data Science Using R Part IV
…
##   name = col_character(),
##   sex = col_character(),
##   age = col_double(),
##   sibsp = col_integer(),
##   parch = col_integer(),
##   ticket = col_character(),
##   fare = col_double(),
##   cabin = col_character(),
##   embarked = col_character(),
##   boat = col_character(),
##   body = col_integer(),
##   home.dest = col_character()
## )

## # A tibble: 1,310 x 14
##   pclass survived name  sex      age sibsp parch ticket  fare cabin
##    <int>    <int> <chr> <chr>  <dbl> <int> <int> <chr>  <dbl> <chr>
## 1      1        1 Alle~ fema~ 29         0     0 24160   211. B5   
## 2      1        1 Alli~ male   0.917     1     2 113781  152. C22 ~
## 3      1        0 Alli~ fema~  2         1     2 113781  152. C22 ~
## 4      1        0 Alli~ male  30         1     2 113781  152. C22 ~
## 5      1        0 Alli~ fema~ 25         1     2 113781  152. C22 ~
## # ... with 1,305 more rows, and 4 more variables: embarked <chr>,
## #   boat <chr>, body <int>, home.dest <chr>
…
Can do any of above for subgroups of data!

Numerical and Graphical Summaries

Quantitative Data

Look at CO2 uptake data set

Carbon Dioxide Uptake in Grass Plants

CO2 <- tbl_df(CO2)
CO2

## # A tibble: 84 x 5
##   Plant Type   Treatment   conc uptake
## * <ord> <fct>  <fct>      <dbl>  <dbl>
## 1 Qn1   Quebec nonchilled    95   16  
## 2 Qn1   Quebec nonchilled   175   30.4
## 3 Qn1   Quebec nonchilled   250   34.8
## 4 Qn1   Quebec nonchilled   350   37.2
## 5 Qn1   Quebec nonchilled   500   35.3
## # ... with 79 more rows
…
## See spec(...) for full column specifications.

## # A tibble: 3,471 x 82
##   week  date  day   season awayTeam   AQ1   AQ2   AQ3   AQ4   AOT  AOT2
##   <chr> <chr> <chr>  <int> <chr>    <int> <int> <int> <int> <int> <int>
## 1 1     5-Sep Thu     2002 San Fra~     3     0     7     6    -1    -1
## 2 1     8-Sep Sun     2002 Minneso~     3    17     0     3    -1    -1
## 3 1     8-Sep Sun     2002 New Orl~     6     7     7     0     6    -1
## 4 1     8-Sep Sun     2002 New Yor~     0    17     3    11     6    -1
## 5 1     8-Sep Sun     2002 Arizona~    10     3     3     7    -1    -1
## # ... with 3,466 more rows, and 71 more variables: AFinal <int>,
## #   homeTeam <chr>, HQ1 <int>, HQ2 <int>, HQ3 <int>, HQ4 <int>, HOT <int>,
## #   HOT2 <int>, HFinal <int>, stadium <chr>, startTime <time>, toss <chr>,
## #   roof <chr>, surface <chr>, duration <int>, attendance <chr>,
## #   weather <chr>, vegasLine <chr>, OU <chr>, AfirstDowns <int>,
## #   AnetPassYds <int>, AtotalYds <int>, Aturnovers <int>,
## #   AtotalPlays <int>, HfirstDowns <int>, HnetPassYds <int>,
## #   HtotalYds <int>, Hturnovers <int>, HtotalPlays <int>, OUvalue <dbl>,
## #   OUresult <chr>, awayRushAtt <int>, awayRushYds <int>,
…
subScores <- scoresFull %>% 
  filter(homeTeam %in% c("Pittsburgh Steelers", "Cleveland Browns",
                         "Baltimore Ravens", "Cincinnati Bengals")) %>% 
  group_by(season, homeTeam) %>%
  summarise(homeAvgYds = mean(homePassYds + homeRushYds))

Numerical and Graphical Summaries

Quantitative Data - Two Variables: Line Plot

subScores

## # A tibble: 52 x 3
## # Groups:   season [?]
##   season homeTeam            homeAvgYds
##    <int> <chr>                    <dbl>
## 1   2002 Baltimore Ravens          294 
## 2   2002 Cincinnati Bengals        326 
## 3   2002 Cleveland Browns          325.
## 4   2002 Pittsburgh Steelers       408.
## 5   2003 Baltimore Ravens          333.
## # ... with 47 more rows
…
Investigated linear relationship between two with correlation

Scatter Plot gives useful visualization

Consider data on voting preferences by county

Inspect relationship with pct with college degree and income

voting <- tbl_df(read.csv("datasets/counties.csv", header = TRUE))

Basic Analysis (Linear Regression)

voting

## # A tibble: 3,141 x 20
##   region county state   msa  pmsa pop.density   pop pop.change age6574
##   <fct>  <fct>  <fct> <int> <int>       <int> <int>      <dbl>   <dbl>
## 1 South  Autau~ AL     5240    NA          61 34222      11.9     5.70
## 2 South  Baldw~ AL     5160    NA          67 98280      35.4     9.20
## 3 South  Barbo~ AL       NA    NA          29 25417       2       8.20
## 4 South  Bibb   AL       NA    NA          28 16576       9.20    6.70
## 5 South  Blount AL     1000    NA          62 39248      10.6     7.40
## # ... with 3,136 more rows, and 11 more variables: age75 <dbl>,
## #   crime <int>, college <dbl>, income <int>, farm <dbl>, democrat <dbl>,
## #   republican <dbl>, Perot <dbl>, white <dbl>, black <dbl>, turnout <dbl>
…
