Introduction to R for Data Science Part III
…
## [1] FALSE FALSE  TRUE FALSE

is.matrix(c("hello", "world"))

## [1] FALSE

Logical Statements/Subsetting Data

Useful for indexing a vector

iris <- as_tibble(iris)
iris

## # A tibble: 150 x 5
##   Sepal.Length Sepal.Width Petal.Length Petal.Width Species
##          <dbl>       <dbl>        <dbl>       <dbl> <fct>  
## 1          5.1         3.5          1.4         0.2 setosa 
## 2          4.9         3            1.4         0.2 setosa 
## 3          4.7         3.2          1.3         0.2 setosa 
## 4          4.6         3.1          1.5         0.2 setosa 
## 5          5           3.6          1.4         0.2 setosa 
## # ... with 145 more rows
…
Logical statements

Goal: Subset rows or columns

logical statement - useful for indexing an R object

iris[iris$Species == "setosa", ]

## # A tibble: 50 x 5
##   Sepal.Length Sepal.Width Petal.Length Petal.Width Species
##          <dbl>       <dbl>        <dbl>       <dbl> <fct>  
## 1          5.1         3.5          1.4         0.2 setosa 
## 2          4.9         3            1.4         0.2 setosa 
## 3          4.7         3.2          1.3         0.2 setosa 
## 4          4.6         3.1          1.5         0.2 setosa 
## 5          5           3.6          1.4         0.2 setosa 
## # ... with 45 more rows

Logical statements

Goal: Subset rows or columns

logical statement - useful for indexing an R object

Similarly, can use subset function

subset(iris, Species == "setosa")

## # A tibble: 50 x 5
##   Sepal.Length Sepal.Width Petal.Length Petal.Width Species
##          <dbl>       <dbl>        <dbl>       <dbl> <fct>  
## 1          5.1         3.5          1.4         0.2 setosa 
## 2          4.9         3            1.4         0.2 setosa 
## 3          4.7         3.2          1.3         0.2 setosa 
## 4          4.6         3.1          1.5         0.2 setosa 
## 5          5           3.6          1.4         0.2 setosa 
## # ... with 45 more rows

dplyr

Goal: Subset rows or columns

logical statement - useful for indexing an R object

Similarly, can use filter from dplyr (installed with tidyverse)

filter(iris, Species == "setosa")

## # A tibble: 50 x 5
##   Sepal.Length Sepal.Width Petal.Length Petal.Width Species
##          <dbl>       <dbl>        <dbl>       <dbl> <fct>  
## 1          5.1         3.5          1.4         0.2 setosa 
## 2          4.9         3            1.4         0.2 setosa 
## 3          4.7         3.2          1.3         0.2 setosa 
## 4          4.6         3.1          1.5         0.2 setosa 
## 5          5           3.6          1.4         0.2 setosa 
## # ... with 45 more rows
…
dplyr

Batting <- as_tibble(Batting)
Batting

## # A tibble: 105,861 x 22
##   playerID yearID stint teamID lgID      G    AB     R     H   X2B   X3B    HR
##   <chr>     <int> <int> <fct>  <fct> <int> <int> <int> <int> <int> <int> <int>
## 1 abercda~   1871     1 TRO    NA        1     4     0     0     0     0     0
## 2 addybo01   1871     1 RC1    NA       25   118    30    32     6     0     0
## 3 allisar~   1871     1 CL1    NA       29   137    28    40     4     5     0
## 4 allisdo~   1871     1 WS3    NA       27   133    28    44    10     2     2
## 5 ansonca~   1871     1 RC1    NA       25   120    29    39    11     3     0
## # ... with 105,856 more rows, and 10 more variables: RBI <int>, SB <int>,
## #   CS <int>, BB <int>, SO <int>, IBB <int>, HBP <int>, SH <int>, SF <int>,
## #   GIDP <int>

If data read in with haven, readxl, or readr probably in this format!

dplyr

filter() - subset rows

Use filter() to obtain only PIT data

filter(Batting, teamID == "PIT")

## # A tibble: 4,817 x 22
##   playerID yearID stint teamID lgID      G    AB     R     H   X2B   X3B    HR
##   <chr>     <int> <int> <fct>  <fct> <int> <int> <int> <int> <int> <int> <int>
## 1 barklsa~   1887     1 PIT    NL       89   340    44    76    10     4     1
## 2 beeched~   1887     1 PIT    NL       41   169    15    41     8     0     2
## 3 bishobi~   1887     1 PIT    NL        3     9     0     0     0     0     0
## 4 brownto~   1887     1 PIT    NL       47   192    30    47     3     4     0
## 5 carrofr~   1887     1 PIT    NL      102   421    71   138    24    15     6
## # ... with 4,812 more rows, and 10 more variables: RBI <int>, SB <int>,
## #   CS <int>, BB <int>, SO <int>, IBB <int>, HBP <int>, SH <int>, SF <int>,
## #   GIDP <int>

dplyr

filter() - subset rows

Multiple filters

filter(Batting, teamID == "PIT" & yearID == 2000)

## # A tibble: 46 x 22
##   playerID yearID stint teamID lgID      G    AB     R     H   X2B   X3B    HR
##   <chr>     <int> <int> <fct>  <fct> <int> <int> <int> <int> <int> <int> <int>
## 1 anderji~   2000     1 PIT    NL       27    50     5     7     1     0     0
## 2 arroybr~   2000     1 PIT    NL       21    21     2     3     2     0     0
## 3 avenbr01   2000     1 PIT    NL       72   148    18    37    11     0     5
## 4 benjami~   2000     1 PIT    NL       93   233    28    63    18     2     2
## 5 bensokr~   2000     1 PIT    NL       32    65     3     6     2     0     0
## # ... with 41 more rows, and 10 more variables: RBI <int>, SB <int>, CS <int>,
## #   BB <int>, SO <int>, IBB <int>, HBP <int>, SH <int>, SF <int>, GIDP <int>

dplyr

arrange() - reorder rows

#reorder by teamID
arrange(Batting, teamID)

## # A tibble: 105,861 x 22
##   playerID yearID stint teamID lgID      G    AB     R     H   X2B   X3B    HR
##   <chr>     <int> <int> <fct>  <fct> <int> <int> <int> <int> <int> <int> <int>
## 1 berrych~   1884     1 ALT    UA        7    25     2     6     0     0     0
## 2 brownji~   1884     1 ALT    UA       21    88    12    22     2     2     1
## 3 carropa~   1884     1 ALT    UA       11    49     4    13     1     0     0
## 4 connojo~   1884     1 ALT    UA        3    11     0     1     0     0     0
## 5 crosscl~   1884     1 ALT    UA        2     7     1     4     1     0     0
## # ... with 105,856 more rows, and 10 more variables: RBI <int>, SB <int>,
## #   CS <int>, BB <int>, SO <int>, IBB <int>, HBP <int>, SH <int>, SF <int>,
## #   GIDP <int>

dplyr

arrange() - reorder rows

#get secondary arrangement as well
arrange(Batting, teamID, G)

## # A tibble: 105,861 x 22
##   playerID yearID stint teamID lgID      G    AB     R     H   X2B   X3B    HR
##   <chr>     <int> <int> <fct>  <fct> <int> <int> <int> <int> <int> <int> <int>
## 1 daisege~   1884     1 ALT    UA        1     4     0     0     0     0     0
## 2 crosscl~   1884     1 ALT    UA        2     7     1     4     1     0     0
## 3 manloch~   1884     1 ALT    UA        2     7     1     3     0     0     0
## 4 connojo~   1884     1 ALT    UA        3    11     0     1     0     0     0
## 5 shafff01   1884     1 ALT    UA        6    19     1     3     0     0     0
## # ... with 105,856 more rows, and 10 more variables: RBI <int>, SB <int>,
## #   CS <int>, BB <int>, SO <int>, IBB <int>, HBP <int>, SH <int>, SF <int>,
## #   GIDP <int>

dplyr

arrange() - reorder rows

#descending instead
arrange(Batting, teamID, desc(G))

## # A tibble: 105,861 x 22
##   playerID yearID stint teamID lgID      G    AB     R     H   X2B   X3B    HR
##   <chr>     <int> <int> <fct>  <fct> <int> <int> <int> <int> <int> <int> <int>
## 1 smithge~   1884     1 ALT    UA       25   108     9    34     8     1     0
## 2 harrifr~   1884     1 ALT    UA       24    95    10    25     2     1     0
## 3 doughch~   1884     1 ALT    UA       23    85     6    22     5     0     0
## 4 murphjo~   1884     1 ALT    UA       23    94    10    14     1     0     0
## 5 brownji~   1884     1 ALT    UA       21    88    12    22     2     2     1
## # ... with 105,856 more rows, and 10 more variables: RBI <int>, SB <int>,
## #   CS <int>, BB <int>, SO <int>, IBB <int>, HBP <int>, SH <int>, SF <int>,
## #   GIDP <int>
…
dplyr

select() - subset columns

Often only want select variables (saw $ and [ , ])

select() function has same syntax as other dplyr functions!

#Choose a single column by name
select(Batting, X2B)

## # A tibble: 105,861 x 1
##     X2B
##   <int>
## 1     0
## 2     6
## 3     4
## 4    10
## 5    11
## # ... with 105,856 more rows

dplyr

select() - subset columns

Often only want select variables (saw $ and [ , ])

select() function has same syntax as other dplyr functions!

#Choose a single column by name
select(Batting, playerID, X2B)

## # A tibble: 105,861 x 2
##   playerID    X2B
##   <chr>     <int>
## 1 abercda01     0
## 2 addybo01      6
## 3 allisar01     4
## 4 allisdo01    10
## 5 ansonca01    11
## # ... with 105,856 more rows

Aside: Piping or Chaining

Applying multiple functions: nesting hard to parse!

Piping or Chaining with %>% operator helps

arrange(select(filter(Batting, teamID == "PIT"), playerID, G, X2B), desc(X2B))

## # A tibble: 4,817 x 3
##   playerID      G   X2B
##   <chr>     <int> <int>
## 1 wanerpa01   154    62
## 2 wanerpa01   148    53
## 3 sanchfr01   157    53
## 4 wanerpa01   152    50
## 5 comorad01   152    47
## # ... with 4,812 more rows

Aside: Piping or Chaining

Applying multiple functions: nesting hard to parse!

Piping or Chaining with %>% operator helps

Batting %>% filter(teamID == "PIT") %>% select(playerID, G, X2B) %>% arrange(desc(X2B)) 

## # A tibble: 4,817 x 3
##   playerID      G   X2B
##   <chr>     <int> <int>
## 1 wanerpa01   154    62
## 2 wanerpa01   148    53
## 3 sanchfr01   157    53
## 4 wanerpa01   152    50
## 5 comorad01   152    47
## # ... with 4,812 more rows
…
x %>% f(y) %>% g(z) turns into g(f(x, y), z)

Can be used with functions outside the tidyverse if this structure works!

dplyr

select() - subset columns

Many ways to select variables

#all columns between
Batting %>% select(X2B:HR)

## # A tibble: 105,861 x 3
##     X2B   X3B    HR
##   <int> <int> <int>
## 1     0     0     0
## 2     6     0     0
## 3     4     5     0
## 4    10     2     2
## 5    11     3     0
## # ... with 105,856 more rows

dplyr

select() - subset columns

Many ways to select variables

#all columns containing
Batting %>% select(contains("X"))

## # A tibble: 105,861 x 2
##     X2B   X3B
##   <int> <int>
## 1     0     0
## 2     6     0
## 3     4     5
## 4    10     2
## 5    11     3
## # ... with 105,856 more rows

dplyr

select() - subset columns

Many ways to select variables

#all columns starting with
Batting %>% select(starts_with("X"))

## # A tibble: 105,861 x 2
##     X2B   X3B
##   <int> <int>
## 1     0     0
## 2     6     0
## 3     4     5
## 4    10     2
## 5    11     3
## # ... with 105,856 more rows

dplyr

select() - subset columns

Many ways to select variables

#multiple selections
Batting %>% select(starts_with("X"), ends_with("ID"), G)

## # A tibble: 105,861 x 7
##     X2B   X3B playerID  yearID teamID lgID      G
##   <int> <int> <chr>      <int> <fct>  <fct> <int>
## 1     0     0 abercda01   1871 TRO    NA        1
## 2     6     0 addybo01    1871 RC1    NA       25
## 3     4     5 allisar01   1871 CL1    NA       29
## 4    10     2 allisdo01   1871 WS3    NA       27
## 5    11     3 ansonca01   1871 RC1    NA       25
## # ... with 105,856 more rows

dplyr

select() - subset columns

May want to reorder variables

#reorder
Batting %>% select(playerID, HR, everything())

## # A tibble: 105,861 x 22
##   playerID    HR yearID stint teamID lgID      G    AB     R     H   X2B   X3B
##   <chr>    <int>  <int> <int> <fct>  <fct> <int> <int> <int> <int> <int> <int>
## 1 abercda~     0   1871     1 TRO    NA        1     4     0     0     0     0
## 2 addybo01     0   1871     1 RC1    NA       25   118    30    32     6     0
## 3 allisar~     0   1871     1 CL1    NA       29   137    28    40     4     5
## 4 allisdo~     2   1871     1 WS3    NA       27   133    28    44    10     2
## 5 ansonca~     0   1871     1 RC1    NA       25   120    29    39    11     3
## # ... with 105,856 more rows, and 10 more variables: RBI <int>, SB <int>,
## #   CS <int>, BB <int>, SO <int>, IBB <int>, HBP <int>, SH <int>, SF <int>,
## #   GIDP <int>

dplyr

rename() - rename variables

#rename our previous
Batting %>% 
  select(starts_with("X"), ends_with("ID"), G) %>% 
  rename("Doubles" = X2B, "Triples" = X3B)

## # A tibble: 105,861 x 7
##   Doubles Triples playerID  yearID teamID lgID      G
##     <int>   <int> <chr>      <int> <fct>  <fct> <int>
## 1       0       0 abercda01   1871 TRO    NA        1
## 2       6       0 addybo01    1871 RC1    NA       25
## 3       4       5 allisar01   1871 CL1    NA       29
## 4      10       2 allisdo01   1871 WS3    NA       27
## 5      11       3 ansonca01   1871 RC1    NA       25
## # ... with 105,856 more rows
…
Creating New Variables

Consider a data set on movie ratings

library(fivethirtyeight)

## Some larger datasets need to be installed separately, like senators and
## house_district_forecast. To install these, we recommend you install the
## fivethirtyeightdata package by running:
## install.packages('fivethirtyeightdata', repos =
## 'https://fivethirtyeightdata.github.io/drat/', type = 'source')

fandango

## # A tibble: 146 x 23
##   film   year rottentomatoes rottentomatoes_~ metacritic metacritic_user  imdb
##   <chr> <dbl>          <int>            <int>      <int>           <dbl> <dbl>
## 1 Aven~  2015             74               86         66             7.1   7.8
## 2 Cind~  2015             85               80         67             7.5   7.1
## 3 Ant-~  2015             80               90         64             8.1   7.8
## 4 Do Y~  2015             18               84         22             4.7   5.4
## 5 Hot ~  2015             14               28         29             3.4   5.1
## # ... with 141 more rows, and 16 more variables: fandango_stars <dbl>,
## #   fandango_ratingvalue <dbl>, rt_norm <dbl>, rt_user_norm <dbl>,
## #   metacritic_norm <dbl>, metacritic_user_nom <dbl>, imdb_norm <dbl>,
## #   rt_norm_round <dbl>, rt_user_norm_round <dbl>, metacritic_norm_round <dbl>,
## #   metacritic_user_norm_round <dbl>, imdb_norm_round <dbl>,
## #   metacritic_user_vote_count <int>, imdb_user_vote_count <int>,
## #   fandango_votes <int>, fandango_difference <dbl>

Creating New Variables

mutate() - add newly created column(s) to current data frame

##Create an average rottentomatoes score variable
fandango %>% mutate(avgRotten = (rottentomatoes + rottentomatoes_user)/2)

## # A tibble: 146 x 24
##   film   year rottentomatoes rottentomatoes_~ metacritic metacritic_user  imdb
##   <chr> <dbl>          <int>            <int>      <int>           <dbl> <dbl>
## 1 Aven~  2015             74               86         66             7.1   7.8
## 2 Cind~  2015             85               80         67             7.5   7.1
## 3 Ant-~  2015             80               90         64             8.1   7.8
## 4 Do Y~  2015             18               84         22             4.7   5.4
## 5 Hot ~  2015             14               28         29             3.4   5.1
## # ... with 141 more rows, and 17 more variables: fandango_stars <dbl>,
## #   fandango_ratingvalue <dbl>, rt_norm <dbl>, rt_user_norm <dbl>,
## #   metacritic_norm <dbl>, metacritic_user_nom <dbl>, imdb_norm <dbl>,
## #   rt_norm_round <dbl>, rt_user_norm_round <dbl>, metacritic_norm_round <dbl>,
## #   metacritic_user_norm_round <dbl>, imdb_norm_round <dbl>,
## #   metacritic_user_vote_count <int>, imdb_user_vote_count <int>,
## #   fandango_votes <int>, fandango_difference <dbl>, avgRotten <dbl>

Creating New Variables

mutate() - add newly created column(s) to current data frame

#can't see it!
fandango %>% mutate(avgRotten = (rottentomatoes + rottentomatoes_user)/2) %>% 
  select(film, year, avgRotten, everything())

## # A tibble: 146 x 24
##   film   year avgRotten rottentomatoes rottentomatoes_~ metacritic
##   <chr> <dbl>     <dbl>          <int>            <int>      <int>
## 1 Aven~  2015      80               74               86         66
## 2 Cind~  2015      82.5             85               80         67
## 3 Ant-~  2015      85               80               90         64
## 4 Do Y~  2015      51               18               84         22
## 5 Hot ~  2015      21               14               28         29
## # ... with 141 more rows, and 18 more variables: metacritic_user <dbl>,
## #   imdb <dbl>, fandango_stars <dbl>, fandango_ratingvalue <dbl>,
## #   rt_norm <dbl>, rt_user_norm <dbl>, metacritic_norm <dbl>,
## #   metacritic_user_nom <dbl>, imdb_norm <dbl>, rt_norm_round <dbl>,
## #   rt_user_norm_round <dbl>, metacritic_norm_round <dbl>,
## #   metacritic_user_norm_round <dbl>, imdb_norm_round <dbl>,
## #   metacritic_user_vote_count <int>, imdb_user_vote_count <int>,
## #   fandango_votes <int>, fandango_difference <dbl>

Creating New Variables

mutate() - add newly created column(s) to current data frame

Add more than one variable

fandango %>% 
  mutate(avgRotten = (rottentomatoes + rottentomatoes_user)/2, 
         avgMeta = (metacritic_norm + metacritic_user_nom)/2) %>%
  select(film, year, avgRotten, avgMeta, everything())

## # A tibble: 146 x 25
##   film   year avgRotten avgMeta rottentomatoes rottentomatoes_~ metacritic
##   <chr> <dbl>     <dbl>   <dbl>          <int>            <int>      <int>
## 1 Aven~  2015      80      3.42             74               86         66
## 2 Cind~  2015      82.5    3.55             85               80         67
## 3 Ant-~  2015      85      3.62             80               90         64
## 4 Do Y~  2015      51      1.72             18               84         22
## 5 Hot ~  2015      21      1.58             14               28         29
## # ... with 141 more rows, and 18 more variables: metacritic_user <dbl>,
## #   imdb <dbl>, fandango_stars <dbl>, fandango_ratingvalue <dbl>,
## #   rt_norm <dbl>, rt_user_norm <dbl>, metacritic_norm <dbl>,
## #   metacritic_user_nom <dbl>, imdb_norm <dbl>, rt_norm_round <dbl>,
## #   rt_user_norm_round <dbl>, metacritic_norm_round <dbl>,
## #   metacritic_user_norm_round <dbl>, imdb_norm_round <dbl>,
## #   metacritic_user_vote_count <int>, imdb_user_vote_count <int>,
## #   fandango_votes <int>, fandango_difference <dbl>

Creating New Variables

transmute() - create new data frame with created variable(s)

#transmute will keep the new variable(s) only
fandango %>% transmute(avgRotten = (rottentomatoes + rottentomatoes_user)/2)

## # A tibble: 146 x 1
##   avgRotten
##       <dbl>
## 1      80  
## 2      82.5
## 3      85  
## 4      51  
## 5      21  
## # ... with 141 more rows

Creating New Variables

transmute() - create new data frame with created variable(s)

#transmute will keep the new variable(s) only
fandango %>% transmute(avgRotten = (rottentomatoes + rottentomatoes_user)/2, 
                       avgMeta = (metacritic_norm + metacritic_user_nom)/2) 

## # A tibble: 146 x 2
##   avgRotten avgMeta
##       <dbl>   <dbl>
## 1      80      3.42
## 2      82.5    3.55
## 3      85      3.62
## 4      51      1.72
## 5      21      1.58
## # ... with 141 more rows

Creating New Variables

mutate and transmute can also use ‘window’ functions

Functions that take a vector of values and return another vector of values (see Cheat sheet)

fandango %>% select(rottentomatoes) %>% mutate(cumulativeSum = cumsum(rottentomatoes))

## # A tibble: 146 x 2
##   rottentomatoes cumulativeSum
##            <int>         <int>
## 1             74            74
## 2             85           159
## 3             80           239
## 4             18           257
## 5             14           271
## # ... with 141 more rows
…
